{
    "openapi": "3.0.0",
    "info": {
        "title": "Blue Ray Api",
        "version": "0.2"
    },
    "servers": [
        {
            "url": "https://dashboard.blueraytourism.com"
        },
        {
            "url": "http://localhost:2349"
        }
    ],
    "paths": {
        "/api/{lang}/about": {
            "get": {
                "description": "about page",
                "operationId": "e6391390b3938cae328f19f5f86c84a6",
                "parameters": [
                    {
                        "name": "lang",
                        "in": "path",
                        "description": "lang",
                        "required": true,
                        "example": "en"
                    }
                ],
                "responses": {
                    "default": {
                        "description": "about page"
                    }
                }
            }
        },
        "/api/{lang}/albums": {
            "get": {
                "description": "album page",
                "operationId": "1655925b0c78ed0cb69d7ccee2b7ee49",
                "parameters": [
                    {
                        "name": "lang",
                        "in": "path",
                        "description": "lang",
                        "required": true,
                        "example": "en"
                    }
                ],
                "responses": {
                    "default": {
                        "description": "album page"
                    }
                }
            }
        },
        "/api/{lang}/albums/{slug}": {
            "get": {
                "description": "single Album",
                "operationId": "cc6112cadc99c99e462f703142a56921",
                "parameters": [
                    {
                        "name": "slug",
                        "in": "path",
                        "description": "slug",
                        "required": true,
                        "example": "first"
                    },
                    {
                        "name": "lang",
                        "in": "path",
                        "description": "lang",
                        "required": true,
                        "example": "en"
                    }
                ],
                "responses": {
                    "default": {
                        "description": "single Album page"
                    }
                }
            }
        },
        "/api/{lang}/blogs": {
            "get": {
                "description": "blog page",
                "operationId": "fe67f4fa4ac83a24d61175a5e91c28fa",
                "parameters": [
                    {
                        "name": "lang",
                        "in": "path",
                        "description": "lang",
                        "required": true,
                        "example": "en"
                    }
                ],
                "responses": {
                    "default": {
                        "description": "blog page"
                    }
                }
            }
        },
        "/api/{lang}/blogs/{slug}": {
            "get": {
                "description": "single blog",
                "operationId": "64b3b063989e540585987a5909cac126",
                "parameters": [
                    {
                        "name": "slug",
                        "in": "path",
                        "description": "slug",
                        "required": true,
                        "example": "first-blog"
                    },
                    {
                        "name": "lang",
                        "in": "path",
                        "description": "lang",
                        "required": true,
                        "example": "en"
                    }
                ],
                "responses": {
                    "default": {
                        "description": "single blog page"
                    }
                }
            }
        },
        "/api/{lang}/contact-us": {
            "get": {
                "description": "contact page",
                "operationId": "7009bf5262e50cbcae5989dcdbc92316",
                "parameters": [
                    {
                        "name": "lang",
                        "in": "path",
                        "description": "lang",
                        "required": true,
                        "example": "en"
                    }
                ],
                "responses": {
                    "default": {
                        "description": "contact page"
                    }
                }
            }
        },
        "/api/contact": {
            "post": {
                "tags": [
                    "Forms"
                ],
                "summary": "Contact Request",
                "description": "Contact Request",
                "operationId": "Client Request",
                "requestBody": {
                    "required": true,
                    "content": {
                        "application/json": {
                            "schema": {
                                "required": [
                                    "email",
                                    "phone",
                                    "name"
                                ],
                                "properties": {
                                    "name": {
                                        "type": "string",
                                        "format": "text",
                                        "example": "Client"
                                    },
                                    "phone": {
                                        "type": "string",
                                        "format": "text",
                                        "example": "123456789"
                                    },
                                    "email": {
                                        "type": "email",
                                        "format": "text",
                                        "example": "client@ileadco.com"
                                    },
                                    "message": {
                                        "type": "string",
                                        "format": "text",
                                        "example": "message"
                                    }
                                },
                                "type": "object"
                            }
                        }
                    }
                },
                "responses": {
                    "200": {
                        "description": "Contact Created successfully",
                        "content": {
                            "application/json": {
                                "schema": {}
                            }
                        }
                    },
                    "422": {
                        "description": "Form Inputs Must be String",
                        "content": {
                            "application/json": {
                                "schema": {
                                    "properties": {
                                        "message": {
                                            "type": "string",
                                            "example": "Sorry, Form Inputs Required. Please try again"
                                        }
                                    },
                                    "type": "object"
                                }
                            }
                        }
                    }
                }
            }
        },
        "/api/ticket": {
            "post": {
                "tags": [
                    "Forms"
                ],
                "summary": "ticket Request",
                "description": "ticketing Request ",
                "operationId": "ticket Request",
                "requestBody": {
                    "required": true,
                    "content": {
                        "application/json": {
                            "schema": {
                                "properties": {
                                    "ticket_type": {
                                        "type": "string",
                                        "format": "text",
                                        "example": "round"
                                    },
                                    "destination_from": {
                                        "type": "string",
                                        "format": "text",
                                        "example": "cairo"
                                    },
                                    "destination_to": {
                                        "type": "string",
                                        "format": "text",
                                        "example": "alex"
                                    },
                                    "from_date": {
                                        "type": "string",
                                        "format": "text",
                                        "example": "2023-02-02"
                                    },
                                    "to_date": {
                                        "type": "string",
                                        "format": "text",
                                        "example": "2023-02-03"
                                    },
                                    "persons": {
                                        "type": "array",
                                        "items": {
                                            "properties": {
                                                "name": {
                                                    "type": "string",
                                                    "example": ""
                                                },
                                                "birthday": {
                                                    "type": "string",
                                                    "format": "date",
                                                    "example": ""
                                                }
                                            },
                                            "type": "object"
                                        },
                                        "example": [
                                            {
                                                "name": "bassant",
                                                "birthday": "1997-02-03"
                                            },
                                            {
                                                "name": "menna",
                                                "birthday": "1997-02-03"
                                            }
                                        ]
                                    }
                                },
                                "type": "object"
                            }
                        }
                    }
                },
                "responses": {
                    "200": {
                        "description": "Ticketing Created successfully",
                        "content": {
                            "application/json": {
                                "schema": {}
                            }
                        }
                    },
                    "422": {
                        "description": "Form Inputs Must be String",
                        "content": {
                            "application/json": {
                                "schema": {
                                    "properties": {
                                        "message": {
                                            "type": "string",
                                            "example": "Sorry, Form Inputs Required. Please try again"
                                        }
                                    },
                                    "type": "object"
                                }
                            }
                        }
                    }
                }
            }
        },
        "/api/booking": {
            "post": {
                "tags": [
                    "Forms"
                ],
                "summary": "booking Request",
                "description": "book package Request ",
                "operationId": "booking Request",
                "requestBody": {
                    "required": true,
                    "content": {
                        "application/json": {
                            "schema": {
                                "required": [
                                    "email",
                                    "phone",
                                    "name",
                                    "package_id"
                                ],
                                "properties": {
                                    "name": {
                                        "type": "string",
                                        "format": "text",
                                        "example": "bassant"
                                    },
                                    "code": {
                                        "type": "string",
                                        "format": "text",
                                        "example": "+2"
                                    },
                                    "phone": {
                                        "type": "string",
                                        "format": "text",
                                        "example": "123456789"
                                    },
                                    "email": {
                                        "type": "email",
                                        "format": "text",
                                        "example": "book@ileadco.com"
                                    },
                                    "package_id": {
                                        "type": "integer",
                                        "format": "text",
                                        "example": 1
                                    },
                                    "child": {
                                        "type": "integer",
                                        "format": "text",
                                        "example": 2
                                    },
                                    "adult": {
                                        "type": "integer",
                                        "format": "text",
                                        "example": 3
                                    },
                                    "message": {
                                        "type": "string",
                                        "format": "text",
                                        "example": "message"
                                    }
                                },
                                "type": "object"
                            }
                        }
                    }
                },
                "responses": {
                    "200": {
                        "description": "Booking Created successfully",
                        "content": {
                            "application/json": {
                                "schema": {}
                            }
                        }
                    },
                    "422": {
                        "description": "Form Inputs Must be String",
                        "content": {
                            "application/json": {
                                "schema": {
                                    "properties": {
                                        "message": {
                                            "type": "string",
                                            "example": "Sorry, Form Inputs Required. Please try again"
                                        }
                                    },
                                    "type": "object"
                                }
                            }
                        }
                    }
                }
            }
        },
        "/api/{lang}": {
            "get": {
                "description": "home page",
                "operationId": "0ac0eb1d7ee8caac266ab74a0aa402af",
                "parameters": [
                    {
                        "name": "lang",
                        "in": "path",
                        "description": "lang",
                        "required": true,
                        "example": "en"
                    }
                ],
                "responses": {
                    "default": {
                        "description": "home page"
                    }
                }
            }
        },
        "/api/{lang}/navbar": {
            "get": {
                "description": "get Navbar links and languages",
                "operationId": "183fe17d605df9adddea197855ec0139",
                "parameters": [
                    {
                        "name": "lang",
                        "in": "path",
                        "description": "lang",
                        "required": true,
                        "example": "en"
                    }
                ],
                "responses": {
                    "default": {
                        "description": "Navbar links and languages"
                    }
                }
            }
        },
        "/api/{lang}/footer": {
            "get": {
                "description": "get footer links and social madia",
                "operationId": "5fa82f781823df94539c3d8b9aaedd93",
                "parameters": [
                    {
                        "name": "lang",
                        "in": "path",
                        "description": "lang",
                        "required": true,
                        "example": "en"
                    }
                ],
                "responses": {
                    "default": {
                        "description": "Navbar links and social madia"
                    }
                }
            }
        },
        "/api/{lang}/ticketing": {
            "get": {
                "description": "get ticketing Page",
                "operationId": "f2efc410219d2fd6603bc65a100efaed",
                "parameters": [
                    {
                        "name": "lang",
                        "in": "path",
                        "description": "lang",
                        "required": true,
                        "example": "en"
                    }
                ],
                "responses": {
                    "default": {
                        "description": "ticketing Page"
                    }
                }
            }
        },
        "/api/{lang}/transportation": {
            "get": {
                "description": "get transportation Page",
                "operationId": "7e71c50b0f9d16fd9a8fec606a5b15bc",
                "parameters": [
                    {
                        "name": "lang",
                        "in": "path",
                        "description": "lang",
                        "required": true,
                        "example": "en"
                    }
                ],
                "responses": {
                    "default": {
                        "description": "transportation Page"
                    }
                }
            }
        },
        "/api/{lang}/media": {
            "get": {
                "description": "get media Page",
                "operationId": "de4a285c1b23d3ccf4c7b5ffbd1c0ab4",
                "parameters": [
                    {
                        "name": "lang",
                        "in": "path",
                        "description": "lang",
                        "required": true,
                        "example": "en"
                    }
                ],
                "responses": {
                    "default": {
                        "description": "media Page"
                    }
                }
            }
        },
        "/api/{lang}/destination": {
            "get": {
                "description": "get destination with packages",
                "operationId": "3ce39d8bd90e62e10beaa0c2510cfd14",
                "parameters": [
                    {
                        "name": "lang",
                        "in": "path",
                        "description": "lang",
                        "required": true,
                        "example": "en"
                    }
                ],
                "responses": {
                    "default": {
                        "description": "destination Page"
                    }
                }
            }
        },
        "/api/{lang}/packages/{slug}": {
            "get": {
                "description": "package details",
                "operationId": "73a2ccc5a9278367fb56f5567fad0824",
                "parameters": [
                    {
                        "name": "lang",
                        "in": "path",
                        "description": "lang",
                        "required": true,
                        "example": "en"
                    },
                    {
                        "name": "slug",
                        "in": "path",
                        "description": "packages slug",
                        "required": true,
                        "example": "religious-tourism"
                    }
                ],
                "responses": {
                    "default": {
                        "description": "package Full details with popular packages"
                    }
                }
            }
        },
        "/api/{lang}/services": {
            "get": {
                "description": "get services Page",
                "operationId": "20bab54d22149623acbedb191e137d4b",
                "parameters": [
                    {
                        "name": "lang",
                        "in": "path",
                        "description": "lang",
                        "required": true,
                        "example": "en"
                    }
                ],
                "responses": {
                    "default": {
                        "description": "services Page with childs"
                    }
                }
            }
        },
        "/api/{lang}/tourisms": {
            "get": {
                "description": "tourism-type page",
                "operationId": "572dc51e697b915be99583d9694eb546",
                "parameters": [
                    {
                        "name": "lang",
                        "in": "path",
                        "description": "lang",
                        "required": true,
                        "example": "en"
                    }
                ],
                "responses": {
                    "default": {
                        "description": "tourisms page with tourism types"
                    }
                }
            }
        },
        "/api/{lang}/tourisms/{slug}": {
            "get": {
                "description": "tourism with packages page",
                "operationId": "cf0dab6e19bedfe8c21c99e12898e34f",
                "parameters": [
                    {
                        "name": "lang",
                        "in": "path",
                        "description": "lang",
                        "required": true,
                        "example": "en"
                    },
                    {
                        "name": "slug",
                        "in": "path",
                        "description": "tourism type slug",
                        "required": true,
                        "example": "religious-tourism"
                    }
                ],
                "responses": {
                    "default": {
                        "description": "tourism-type page"
                    }
                }
            }
        },
        "/api/{lang}/videos": {
            "get": {
                "description": "videos page",
                "operationId": "69ddba5a8375e92f1c3f22c04ff5d22c",
                "parameters": [
                    {
                        "name": "lang",
                        "in": "path",
                        "description": "lang",
                        "required": true,
                        "example": "en"
                    }
                ],
                "responses": {
                    "default": {
                        "description": "videos page"
                    }
                }
            }
        }
    }
}